Regresión logística
…
---

<h3>Ejemplo</h3>

Impresión de la tabla de predicciones generada atrás

```r
d %>% select(bacteria, prob.pred, bacteria.pred)
```

```
#> # A tibble: 193 x 3
#>    bacteria prob.pred bacteria.pred
#>       <dbl>     <dbl>         <dbl>
#>  1        0    0.0111             0
#>  2        0    0.0111             0
#>  3        0    0.126              0
#>  4        0    0.126              0
#>  5        1    0.126              0
#>  6        0    0.0278             0
#>  7        0    0.126              0
#>  8        0    0.0278             0
#>  9        0    0.0111             0
#> 10        0    0.0278             0
#> # … with 183 more rows
```
…
