Conceptos sobre Diseño experimental
…
.pull-right[

```r
dca ## imprime la tabla
```

```
#> # A tibble: 24 x 2
#>       ue trat     
#>    <int> <fct>    
#>  1     1 sin-media
#>  2     2 con-baja 
#>  3     3 sin-alta 
#>  4     4 sin-baja 
#>  5     5 con-baja 
#>  6     6 con-alta 
#>  7     7 sin-alta 
#>  8     8 con-alta 
#>  9     9 sin-alta 
#> 10    10 sin-alta 
#> # … with 14 more rows
```
…
.pull-right[

```r
dca ## imprime la tabla
```

```
#> # A tibble: 24 x 3
#>       ue estres luz  
#>    <int> <chr>  <chr>
#>  1     1 sin    media
#>  2     2 con    baja 
#>  3     3 sin    alta 
#>  4     4 sin    baja 
#>  5     5 con    baja 
#>  6     6 con    alta 
#>  7     7 sin    alta 
#>  8     8 con    alta 
#>  9     9 sin    alta 
#> 10    10 sin    alta 
#> # … with 14 more rows
```
…
.right-column[
<img src="images/excel_parentales.png" width="65%" style="display: block; margin: auto;" />
]

---

```r
# Se importa la tabla desde excel
library(readxl)
dbca <- read_excel(path = 'parentales.xlsx')
dbca
```

```
#> # A tibble: 30 x 2
#>    parental plantulas
#>    <chr>    <chr>    
#>  1 B456     p21      
#>  2 B456     p18      
#>  3 B456     p2       
#>  4 B456     p10      
#>  5 B456     p15      
#>  6 B456     p14      
#>  7 B378     p20      
#>  8 B378     p28      
#>  9 B378     p23      
#> 10 B378     p27      
#> # … with 20 more rows
```
…
---

.pull-left[

```r
dbca  # se imprima la tabla
```

```
#> # A tibble: 30 x 4
#>    parental plantulas estres luz  
#>    <chr>    <chr>     <chr>  <chr>
#>  1 B456     p21       con    media
#>  2 B456     p18       sin    media
#>  3 B456     p2        sin    alta 
#>  4 B456     p10       con    alta 
#>  5 B456     p15       sin    baja 
#>  6 B456     p14       con    baja 
#>  7 B378     p20       sin    alta 
#>  8 B378     p28       con    baja 
#>  9 B378     p23       con    alta 
#> 10 B378     p27       sin    baja 
#> # … with 20 more rows
```
…
